{
    "replacers": [
        {
            "source": "auto/jsb_cocos2dx_extension_auto.d.ts", 
            "class": "Control", 
            "to": "auto_props_api/Control.txt"
        }, 
        {
            "source": "auto/jsb_cocos2dx_extension_auto.d.ts", 
            "class": "TableViewCell", 
            "to": "auto_props_api/TableViewCell.txt"
        }, 
        {
            "source": "auto/jsb_cocos2dx_extension_auto.d.ts", 
            "class": "ControlStepper", 
            "to": "auto_props_api/ControlStepper.txt"
        }, 
        {
            "source": "auto/jsb_cocos2dx_extension_auto.d.ts", 
            "class": "ControlSwitch", 
            "to": "auto_props_api/ControlSwitch.txt"
        }, 
        {
            "source": "auto/jsb_cocos2dx_extension_auto.d.ts", 
            "class": "ControlSlider", 
            "to": "auto_props_api/ControlSlider.txt"
        }, 
        {
            "source": "auto/jsb_cocos2dx_extension_auto.d.ts", 
            "class": "ControlSaturationBrightnessPicker", 
            "to": "auto_props_api/ControlSaturationBrightnessPicker.txt"
        }, 
        {
            "source": "auto/jsb_cocos2dx_extension_auto.d.ts", 
            "class": "ControlColourPicker", 
            "to": "auto_props_api/ControlColourPicker.txt"
        }, 
        {
            "source": "auto/jsb_cocos2dx_extension_auto.d.ts", 
            "class": "ControlPotentiometer", 
            "to": "auto_props_api/ControlPotentiometer.txt"
        }, 
        {
            "source": "auto/jsb_cocos2dx_extension_auto.d.ts", 
            "class": "ScrollView", 
            "to": "auto_props_api/ScrollView.txt"
        }, 
        {
            "source": "auto/jsb_cocos2dx_extension_auto.d.ts", 
            "class": "ControlButton", 
            "to": "auto_props_api/ControlButton.txt"
        }, 
        {
            "source": "auto/jsb_cocos2dx_extension_auto.d.ts", 
            "class": "ControlHuePicker", 
            "to": "auto_props_api/ControlHuePicker.txt"
        }, 
        {
            "source": "auto/jsb_cocos2dx_studio_auto.d.ts", 
            "class": "Armature", 
            "to": "auto_props_api/Armature.txt"
        }, 
        {
            "source": "auto/jsb_cocos2dx_studio_auto.d.ts", 
            "class": "Bone", 
            "to": "auto_props_api/Bone.txt"
        }, 
        {
            "source": "auto/jsb_cocos2dx_studio_auto.d.ts", 
            "class": "ColliderDetector", 
            "to": "auto_props_api/ColliderDetector.txt"
        }, 
        {
            "source": "auto/jsb_cocos2dx_studio_auto.d.ts", 
            "class": "Skin", 
            "to": "auto_props_api/Skin.txt"
        }, 
        {
            "source": "auto/jsb_cocos2dx_ui_auto.d.ts", 
            "class": "Widget", 
            "to": "auto_props_api/Widget.txt"
        }, 
        {
            "source": "auto/jsb_cocos2dx_ui_auto.d.ts", 
            "class": "CheckBox", 
            "to": "auto_props_api/CheckBox.txt"
        }, 
        {
            "source": "auto/jsb_cocos2dx_ui_auto.d.ts", 
            "class": "Layout", 
            "to": "auto_props_api/Layout.txt"
        }, 
        {
            "source": "auto/jsb_cocos2dx_ui_auto.d.ts", 
            "class": "EditBox", 
            "to": "auto_props_api/EditBox.txt"
        }, 
        {
            "source": "auto/jsb_cocos2dx_ui_auto.d.ts", 
            "class": "Text", 
            "to": "auto_props_api/Text.txt"
        }, 
        {
            "source": "auto/jsb_cocos2dx_ui_auto.d.ts", 
            "class": "Button", 
            "to": "auto_props_api/Button.txt"
        }, 
        {
            "source": "auto/jsb_cocos2dx_ui_auto.d.ts", 
            "class": "LinearLayoutParameter", 
            "to": "auto_props_api/LinearLayoutParameter.txt"
        }, 
        {
            "source": "auto/jsb_cocos2dx_ui_auto.d.ts", 
            "class": "PageView", 
            "to": "auto_props_api/PageView.txt"
        }, 
        {
            "source": "auto/jsb_cocos2dx_ui_auto.d.ts", 
            "class": "ScrollView", 
            "to": "auto_props_api/ScrollView.txt"
        }, 
        {
            "source": "auto/jsb_cocos2dx_ui_auto.d.ts", 
            "class": "TextBMFont", 
            "to": "auto_props_api/TextBMFont.txt"
        }, 
        {
            "source": "auto/jsb_cocos2dx_ui_auto.d.ts", 
            "class": "Slider", 
            "to": "auto_props_api/Slider.txt"
        }, 
        {
            "source": "auto/jsb_cocos2dx_ui_auto.d.ts", 
            "class": "RadioButton", 
            "to": "auto_props_api/RadioButton.txt"
        }, 
        {
            "source": "auto/jsb_cocos2dx_ui_auto.d.ts", 
            "class": "LayoutParameter", 
            "to": "auto_props_api/LayoutParameter.txt"
        }, 
        {
            "source": "auto/jsb_cocos2dx_ui_auto.d.ts", 
            "class": "RadioButtonGroup", 
            "to": "auto_props_api/RadioButtonGroup.txt"
        }, 
        {
            "source": "auto/jsb_cocos2dx_ui_auto.d.ts", 
            "class": "Scale9Sprite", 
            "to": "auto_props_api/Scale9Sprite.txt"
        }, 
        {
            "source": "auto/jsb_cocos2dx_ui_auto.d.ts", 
            "class": "TextAtlas", 
            "to": "auto_props_api/TextAtlas.txt"
        }, 
        {
            "source": "auto/jsb_cocos2dx_ui_auto.d.ts", 
            "class": "LoadingBar", 
            "to": "auto_props_api/LoadingBar.txt"
        }, 
        {
            "source": "auto/jsb_cocos2dx_ui_auto.d.ts", 
            "class": "TextField", 
            "to": "auto_props_api/TextField.txt"
        }, 
        {
            "source": "auto/jsb_cocos2dx_ui_auto.d.ts", 
            "class": "ListView", 
            "to": "auto_props_api/ListView.txt"
        }, 
        {
            "source": "auto/jsb_cocos2dx_ui_auto.d.ts", 
            "class": "RelativeLayoutParameter", 
            "to": "auto_props_api/RelativeLayoutParameter.txt"
        }, 
        {
            "source": "auto/jsb_cocos2dx_ui_auto.d.ts", 
            "class": "ImageView", 
            "to": "auto_props_api/ImageView.txt"
        }, 
        {
            "source": "auto/jsb_cocos2dx_auto.d.ts", 
            "class": "Menu", 
            "to": "auto_props_api/Menu.txt"
        }, 
        {
            "source": "auto/jsb_cocos2dx_auto.d.ts", 
            "class": "EventTouch", 
            "to": "auto_props_api/EventTouch.txt"
        }, 
        {
            "source": "auto/jsb_cocos2dx_auto.d.ts", 
            "class": "LayerColor", 
            "to": "auto_props_api/LayerColor.txt"
        }, 
        {
            "source": "auto/jsb_cocos2dx_auto.d.ts", 
            "class": "ProgressTimer", 
            "to": "auto_props_api/ProgressTimer.txt"
        }, 
        {
            "source": "auto/jsb_cocos2dx_auto.d.ts", 
            "class": "LayerGradient", 
            "to": "auto_props_api/LayerGradient.txt"
        }, 
        {
            "source": "auto/jsb_cocos2dx_auto.d.ts", 
            "class": "MenuItemSprite", 
            "to": "auto_props_api/MenuItemSprite.txt"
        }, 
        {
            "source": "auto/jsb_cocos2dx_auto.d.ts", 
            "class": "ParticleSystem", 
            "to": "auto_props_api/ParticleSystem.txt"
        }, 
        {
            "source": "auto/jsb_cocos2dx_auto.d.ts", 
            "class": "Node", 
            "to": "auto_props_api/Node.txt"
        }, 
        {
            "source": "auto/jsb_cocos2dx_auto.d.ts", 
            "class": "RenderTexture", 
            "to": "auto_props_api/RenderTexture.txt"
        }, 
        {
            "source": "auto/jsb_cocos2dx_auto.d.ts", 
            "class": "Sprite", 
            "to": "auto_props_api/Sprite.txt"
        }, 
        {
            "source": "auto/jsb_cocos2dx_auto.d.ts", 
            "class": "LabelBMFont", 
            "to": "auto_props_api/LabelBMFont.txt"
        }, 
        {
            "source": "auto/jsb_cocos2dx_auto.d.ts", 
            "class": "Director", 
            "to": "auto_props_api/Director.txt"
        }, 
        {
            "source": "auto/jsb_cocos2dx_auto.d.ts", 
            "class": "TextFieldTTF", 
            "to": "auto_props_api/TextFieldTTF.txt"
        }, 
        {
            "source": "auto/jsb_cocos2dx_auto.d.ts", 
            "class": "Texture2D", 
            "to": "auto_props_api/Texture2D.txt"
        }, 
        {
            "source": "auto/jsb_cocos2dx_auto.d.ts", 
            "class": "LayerRGBA", 
            "to": "auto_props_api/LayerRGBA.txt"
        }, 
        {
            "source": "auto/jsb_cocos2dx_auto.d.ts", 
            "class": "SpriteBatchNode", 
            "to": "auto_props_api/SpriteBatchNode.txt"
        }, 
        {
            "source": "auto/jsb_cocos2dx_auto.d.ts", 
            "class": "MenuItemFont", 
            "to": "auto_props_api/MenuItemFont.txt"
        }, 
        {
            "source": "auto/jsb_cocos2dx_auto.d.ts", 
            "class": "ParticleBatchNode", 
            "to": "auto_props_api/ParticleBatchNode.txt"
        }, 
        {
            "source": "auto/jsb_cocos2dx_auto.d.ts", 
            "class": "EventListener", 
            "to": "auto_props_api/EventListener.txt"
        }, 
        {
            "source": "auto/jsb_cocos2dx_auto.d.ts", 
            "class": "LabelTTF", 
            "to": "auto_props_api/LabelTTF.txt"
        }, 
        {
            "source": "auto/jsb_cocos2dx_auto.d.ts", 
            "class": "TMXTiledMap", 
            "to": "auto_props_api/TMXTiledMap.txt"
        }, 
        {
            "source": "auto/jsb_cocos2dx_auto.d.ts", 
            "class": "MotionStreak", 
            "to": "auto_props_api/MotionStreak.txt"
        }, 
        {
            "source": "auto/jsb_cocos2dx_auto.d.ts", 
            "class": "MenuItemLabel", 
            "to": "auto_props_api/MenuItemLabel.txt"
        }, 
        {
            "source": "auto/jsb_cocos2dx_auto.d.ts", 
            "class": "Action", 
            "to": "auto_props_api/Action.txt"
        }, 
        {
            "source": "auto/jsb_cocos2dx_auto.d.ts", 
            "class": "Label", 
            "to": "auto_props_api/Label.txt"
        }, 
        {
            "source": "auto/jsb_cocos2dx_auto.d.ts", 
            "class": "ClippingNode", 
            "to": "auto_props_api/ClippingNode.txt"
        }, 
        {
            "source": "auto/jsb_cocos2dx_auto.d.ts", 
            "class": "EventMouse", 
            "to": "auto_props_api/EventMouse.txt"
        }, 
        {
            "source": "auto/jsb_cocos2dx_auto.d.ts", 
            "class": "AtlasNode", 
            "to": "auto_props_api/AtlasNode.txt"
        }, 
        {
            "source": "auto/jsb_cocos2dx_auto.d.ts", 
            "class": "TMXLayer", 
            "to": "auto_props_api/TMXLayer.txt"
        }, 
        {
            "source": "auto/jsb_cocos2dx_auto.d.ts", 
            "class": "MenuItem", 
            "to": "auto_props_api/MenuItem.txt"
        }, 
        {
            "source": "auto/jsb_cocos2dx_auto.d.ts", 
            "class": "NodeGrid", 
            "to": "auto_props_api/NodeGrid.txt"
        }, 
        {
            "source": "auto/jsb_cocos2dx_auto.d.ts", 
            "class": "Event", 
            "to": "auto_props_api/Event.txt"
        }, 
        {
            "source": "auto/jsb_cocos2dx_auto.d.ts", 
            "class": "LabelAtlas", 
            "to": "auto_props_api/LabelAtlas.txt"
        }
    ]
}